mapme.biodiversity - A Tool for Reproducible Conservation Data Analysis
…
read_sf(dsn, layer = "metadata")
#> Simple feature collection with 4 features and 4 fields
#> Geometry type: POLYGON
#> Dimension:     XY
#> Bounding box:  xmin: -65.10765 ymin: -9.72112 xmax: -63.4921 ymax: -8.348096
#> Geodetic CRS:  WGS 84 (CRS84)
#> # A tibble: 4 × 5
#>   name          start_flooding      type     assetid                        geom
#>   <chr>         <dttm>              <chr>      <int>               <POLYGON [°]>
#> 1 Santo Antonio 2011-01-01 00:00:00 upstream       3 ((-64.31941 -9.13046, -64.…
#> 2 Jirau         2013-01-01 00:00:00 upstream       4 ((-64.9534 -9.643272, -64.…
#> 3 Santo Antonio 2011-01-01 00:00:00 buffer         1 ((-63.58061 -8.538803, -63…
#> 4 Jirau         2013-01-01 00:00:00 buffer         2 ((-64.90595 -9.637122, -64…
read_sf(dsn, layer = "indicators")
#> # A tibble: 222 × 6
#>    assetid indicator      datetime            variable  unit   value
#>      <int> <chr>          <dttm>              <chr>     <chr>  <dbl>
#>  1       3 treecover_area 2000-01-01 00:00:00 treecover ha    50695.
#>  2       3 treecover_area 2001-01-01 00:00:00 treecover ha    50229.
#>  3       3 treecover_area 2002-01-01 00:00:00 treecover ha    49511.
#>  4       3 treecover_area 2003-01-01 00:00:00 treecover ha    48674.
#>  5       3 treecover_area 2004-01-01 00:00:00 treecover ha    48013.
#>  6       3 treecover_area 2005-01-01 00:00:00 treecover ha    46485.
#>  7       3 treecover_area 2006-01-01 00:00:00 treecover ha    45933.
#>  8       3 treecover_area 2007-01-01 00:00:00 treecover ha    45379.
#>  9       3 treecover_area 2008-01-01 00:00:00 treecover ha    45234.
#> 10       3 treecover_area 2009-01-01 00:00:00 treecover ha    44609.
#> # ℹ 212 more rows
…
Figure 9: GSW transition classes distribution between 1984-2021.

From the GSW transition indicator, we are still not obtaining any information on the timing of these changes. For this, we are going to visualize the two most important classes, namely permanent and seasonal water surfaces, over time. Figure 10 shows that prior to 2011, the surface which was permanently covered by water was relatively stable for both upstream river courses. That changes for the Santo Antonio dam abruptly in 2012, where we observe a steep increase from ~9,000 ha to 13,500 ha of areas permanently covered in water. For the Jirau, the increase is delayed by a year and also with lower magnitude with an increase of about 3,000 ha. This pattern is, however, reversed with the seasonal water class were we see an absolute increase of about 10,000 ha for Jiaru while only about 2,000 ha for Santo Antonio.

Code
upstreams$gsw_timeseries[[1]]
#> # A tibble: 80 × 4
#>    datetime            variable        unit   value
#>    <dttm>              <chr>           <chr>  <dbl>
#>  1 2000-01-01 00:00:00 no_observations ha    51647.
#>  2 2001-01-01 00:00:00 no_observations ha    51649.
#>  3 2002-01-01 00:00:00 no_observations ha    51648.
#>  4 2003-01-01 00:00:00 no_observations ha    51655.
#>  5 2004-01-01 00:00:00 no_observations ha    51648.
#>  6 2005-01-01 00:00:00 no_observations ha    51650.
#>  7 2006-01-01 00:00:00 no_observations ha    51649.
#>  8 2007-01-01 00:00:00 no_observations ha    51648.
#>  9 2008-01-01 00:00:00 no_observations ha    51648.
#> 10 2009-01-01 00:00:00 no_observations ha    51649.
#> # ℹ 70 more rows
…
